[gd_scene load_steps=3 format=2]

[ext_resource path="res://Assets/snow.png" type="Texture" id=1]

[sub_resource type="RectangleShape2D" id=1]
extents = Vector2( 175.9, 35 )

[node name="Ground" type="StaticBody2D"]

[node name="Sprite" type="Sprite" parent="."]
texture = ExtResource( 1 )

[node name="Sprite2" type="Sprite" parent="."]
position = Vector2( 70.395, 0 )
texture = ExtResource( 1 )

[node name="Sprite3" type="Sprite" parent="."]
position = Vector2( -140.79, 0 )
texture = ExtResource( 1 )

[node name="Sprite4" type="Sprite" parent="."]
position = Vector2( -70.395, 0 )
texture = ExtResource( 1 )

[node name="Sprite5" type="Sprite" parent="."]
position = Vector2( 140.79, 0 )
texture = ExtResource( 1 )

[node name="CollisionShape2D" type="CollisionShape2D" parent="."]
visible = false
position = Vector2( 1.52588e-005, 0 )
shape = SubResource( 1 )
